module consult

go 1.21

toolchain go1.22.0

require (
	github.com/bwmarrin/snowflake v0.3.0
	github.com/gin-gonic/gin v1.9.1
	github.com/go-redis/redis v6.15.9+incompatible
	github.com/golang-jwt/jwt v3.2.2+incompatible
	github.com/spf13/viper v1.18.2
	github.com/swaggo/files v1.0.1
	github.com/swaggo/gin-swagger v1.6.0
	github.com/swaggo/swag v1.16.3
	gorm.io/driver/mysql v1.5.4
	gorm.io/gorm v1.25.7
)

require (
	github.com/KyleBanks/depth v1.2.1 // indirect
	github.com/bytedance/sonic v1.11.2 // indirect
	github.com/chenzhuoyu/base64x v0.0.0-20230717121745-296ad89f973d // indirect
	github.com/chenzhuoyu/iasm v0.9.1 // indirect
	github.com/fsnotify/fsnotify v1.7.0 // indirect
	github.com/gabriel-vasile/mimetype v1.4.3 // indirect
	github.com/gin-contrib/sse v0.1.0 // indirect
	github.com/go-openapi/jsonpointer v0.20.2 // indirect
	github.com/go-openapi/jsonreference v0.20.4 // indirect
	github.com/go-openapi/spec v0.20.14 // indirect
	github.com/go-openapi/swag v0.22.9 // indirect
	github.com/go-playground/locales v0.14.1 // indirect
	github.com/go-playground/universal-translator v0.18.1 // indirect
	github.com/go-playground/validator/v10 v10.19.0 // indirect
	github.com/go-sql-driver/mysql v1.7.0 // indirect
	github.com/goccy/go-json v0.10.2 // indirect
	github.com/google/go-cmp v0.6.0 // indirect
	github.com/hashicorp/hcl v1.0.0 // indirect
	github.com/jinzhu/inflection v1.0.0 // indirect
	github.com/jinzhu/now v1.1.5 // indirect
	github.com/josharian/intern v1.0.0 // indirect
	github.com/json-iterator/go v1.1.12 // indirect
	github.com/klauspost/cpuid/v2 v2.2.7 // indirect
	github.com/leodido/go-urn v1.4.0 // indirect
	github.com/magiconair/properties v1.8.7 // indirect
	github.com/mailru/easyjson v0.7.7 // indirect
	github.com/mattn/go-isatty v0.0.20 // indirect
	github.com/mitchellh/mapstructure v1.5.0 // indirect
	github.com/modern-go/concurrent v0.0.0-20180306012644-bacd9c7ef1dd // indirect
	github.com/modern-go/reflect2 v1.0.2 // indirect
	github.com/onsi/ginkgo v1.16.5 // indirect
	github.com/onsi/gomega v1.31.1 // indirect
	github.com/pelletier/go-toml/v2 v2.1.1 // indirect
	github.com/sagikazarmark/locafero v0.4.0 // indirect
	github.com/sagikazarmark/slog-shim v0.1.0 // indirect
	github.com/sourcegraph/conc v0.3.0 // indirect
	github.com/spf13/afero v1.11.0 // indirect
	github.com/spf13/cast v1.6.0 // indirect
	github.com/spf13/pflag v1.0.5 // indirect
	github.com/subosito/gotenv v1.6.0 // indirect
	github.com/twitchyliquid64/golang-asm v0.15.1 // indirect
	github.com/ugorji/go/codec v1.2.12 // indirect
	go.uber.org/atomic v1.9.0 // indirect
	go.uber.org/multierr v1.9.0 // indirect
	golang.org/x/arch v0.7.0 // indirect
	golang.org/x/crypto v0.20.0 // indirect
	golang.org/x/exp v0.0.0-20230905200255-921286631fa9 // indirect
	golang.org/x/net v0.21.0 // indirect
	golang.org/x/sys v0.17.0 // indirect
	golang.org/x/text v0.14.0 // indirect
	golang.org/x/tools v0.18.0 // indirect
	google.golang.org/protobuf v1.32.0 // indirect
	gopkg.in/ini.v1 v1.67.0 // indirect
	gopkg.in/yaml.v3 v3.0.1 // indirect
)
